Lesson 6 Presence-absence Data | eBird Best Practices Workshop
…
We have the same number of positive observations, but have now drastically reduced the number of checklists that didn’t detect Cozumel Vireo observations.

6.3 Tidying up

We now have a zero-filled presence-absence dataset with duplicate group checklists removed and all observations at the species level. There are couple remaining steps that we typically run to clean up the data. First, you may have noticed some cases where observation_count is "X" in the data. This is what eBirders enter for the count to indicate that they didn’t count the number of individuals for a given species.

arrange(ebd_zf_df, desc(observation_count)) %>% 
  select(checklist_id, observation_count) %>% 
  head(10)
#> # A tibble: 10 x 2
#>   checklist_id observation_count
#>   <chr>        <chr>            
#> 1 S26749776    X                
#> 2 S16248765    X                
#> 3 S16540721    X                
#> 4 S16490447    X                
#> 5 S16520714    X                
#> 6 S16382176    X                
#> # … with 4 more rows
…
